<svg width="23" height="22" viewBox="0 0 23 22" fill="none" xmlns="http://www.w3.org/2000/svg">
<path d="M9.37934 12.3917H17.4818L21.7368 15.7872V3.41033C21.7368 2.08082 20.6134 1 19.2315 1H9.37934C7.99745 1 6.87405 2.08082 6.87405 3.41033V9.97178C6.87405 11.3109 7.99745 12.3917 9.37934 12.3917Z" stroke="#F94144" stroke-width="2" stroke-miterlimit="10" stroke-linecap="round" stroke-linejoin="round"/>
<path d="M16.428 15.1846C16.428 16.5141 15.3046 17.5949 13.9227 17.5949H5.98924L1.73422 21V8.6231C1.73422 7.29359 2.85762 6.21277 4.23951 6.21277" stroke="#577590" stroke-width="2" stroke-miterlimit="10" stroke-linecap="round" stroke-linejoin="round"/>
<path d="M18.2771 4.77808H10.3238" stroke="#577590" stroke-width="2" stroke-miterlimit="10" stroke-linecap="round" stroke-linejoin="round"/>
<path d="M18.2771 8.604H14.3004" stroke="#577590" stroke-width="2" stroke-miterlimit="10" stroke-linecap="round" stroke-linejoin="round"/>
</svg>
