<svg width="18" height="18" viewBox="0 0 18 18" fill="none" xmlns="http://www.w3.org/2000/svg">
<path d="M1.53345 1.53299L17.0008 17.0003" stroke="#577590" stroke-width="2" stroke-linecap="round" stroke-linejoin="round"/>
<path d="M1.53345 17.0003L17.0008 1.53299" stroke="#F94144" stroke-width="2" stroke-linecap="round" stroke-linejoin="round"/>
</svg>
