<svg width="20" height="23" viewBox="0 0 20 23" fill="none" xmlns="http://www.w3.org/2000/svg">
<path d="M10.067 1C5.26351 1 1.33337 4.93013 1.33337 9.73363C1.33337 16.9825 10.067 21 10.067 21C10.067 21 18.8006 16.3712 18.8006 9.73363C18.8006 4.93013 14.8705 1 10.067 1Z" stroke="#3E3E93" stroke-width="2" stroke-miterlimit="10"/>
<path d="M7.97095 9.73364C7.97095 10.869 8.93165 11.8297 10.067 11.8297C11.2024 11.8297 12.1631 10.869 12.1631 9.73364C12.1631 8.59827 11.2024 7.63757 10.067 7.63757C8.93165 7.63757 7.97095 8.59827 7.97095 9.73364Z" stroke="#FA5E68" stroke-width="2" stroke-miterlimit="10"/>
</svg>
