<svg width="6" height="6" viewBox="0 0 6 6" fill="none" xmlns="http://www.w3.org/2000/svg">
<path d="M2.03787 5.4018L0.0878643 3.22267C-0.0292881 3.09176 -0.0292881 2.87949 0.0878643 2.74856L0.512119 2.27444C0.629271 2.14351 0.819232 2.14351 0.936385 2.27444L2.25 3.74239L5.06362 0.598188C5.18077 0.467271 5.37073 0.467271 5.48788 0.598188L5.91214 1.07231C6.02929 1.20322 6.02929 1.41549 5.91214 1.54642L2.46213 5.40181C2.34497 5.53273 2.15502 5.53273 2.03787 5.4018Z" fill="#F94144"/>
</svg>
