{
  "order-placed": {
    "blocks": ["op-header", "op-order"]
  },
  "op-header": {
    "children": [
      "op-section#confirmation",
      // "op-section#notices",
      "op-summary-section",
      "op-bank-invoice-section"
    ]
  },
  "op-section#confirmation": {
    "props": {
      "name": "confirmation",
      "marginBottom": 9,
      "borderless": true
    },
    "children": [
      "flex-layout.row#op-confirmation-icon",
      "flex-layout.row#op-confirmation-title",
      "op-confirmation-message"
      // "flex-layout.row#confirmation-buttons"
    ]
  },
  "flex-layout.row#op-confirmation-icon":{
    "children": [
      "image#hi-five",
      "op-order-datetime"
    ],
    "props": {
      "horizontalAlign": "center",
      "blockClass": "hifive"
    }
  },
  "image#hi-five":{
    "props": {
      "src": "/arquivos/hi-five.png"
    }
  },
  "flex-layout.row#op-confirmation-title":{
    "children": [
      "flex-layout.col#op-confirmation-icon",
      "flex-layout.col#op-confirmation-title"
    ],
    "props": {
      "horizontalAlign": "left",
      "blockClass":"content-op"
    }
  },
  "flex-layout.col#op-confirmation-icon":{
    "children": [
      "image#op-confirmation-icon"
    ],
    "props": {
      "width": "20%"
    }
  },
  "flex-layout.col#op-confirmation-title":{
    "children": [
      "rich-text#op-confirmation-title"
    ],
    "props": {
      "width": "80%"
    }
  },
  "image#op-confirmation-icon":{
    "props": {
      "src": "/arquivos/ic_check.png",
      "blockClass": "check-icon"
    }
  },
  "rich-text#op-confirmation-title":{
    "props": {
      "text": "Seu pedido foi processado com sucesso.",
      "blockClass": "op-confirmation-title"
    }
  },

  // each order section
  "op-order": {
    "children": [
      "flex-layout.row#op-order-header",
      "op-order-split-notice",
      "flex-layout.row#op-order-customer",
      "flex-layout.row#op-order-delivery",
      "flex-layout.row#op-order-paymnent",
      "flex-layout.row#op-order-total",
      "flex-layout.row#op-order-options"
    ]
  },
  // each order header
  "flex-layout.row#op-order-header": {
    "props": {
      "fullWidth": true,
      "colSizing": "auto",
      "colGap": 5,
      "marginBottom": 5
    },
    "children": [
      "flex-layout.col#order-header-info"
    ]
  },
  "flex-layout.col#order-header-info": {
    "children": ["op-order-number"]
  },

  // customer section
  "flex-layout.row#op-order-customer":{
    "children": [
      "rich-text#op-order-customer",
      "op-order-customer"
    ],
    "props": {
      "blockClass":"op-order-section"
    }
  },
  "rich-text#op-order-customer":{
    "props": {
      "text": "Dados Pessoais",
      "blockClass":"op-title-customer"
    }
  },

  // delivery section
  "flex-layout.row#op-order-delivery":{
    "children": [
      "rich-text#op-order-delivery",
      "op-section#pickup-packages",
      "op-section#delivery-packages",
      "op-order-takeaway-packages"
    ],
    "props": {
      "blockClass":"op-order-section"
    }
  },
  "rich-text#op-order-delivery":{
    "props": {
      "text": "Dados para Entrega",
      "blockClass":"op-title-delivery"
    }
  },
  "op-section#pickup-packages": {
    "props": {
      "name": "pickupPackages"
    },
    "children": ["op-order-pickup-packages"]
  },
  "op-section#delivery-packages": {
    "props": {
      "name": "deliveryPackages"
    },
    "children": ["op-order-delivery-packages"]
  },

  // payment section
  "flex-layout.row#op-order-paymnent":{
    "children": [
      "rich-text#op-order-payment",
      "op-section#payments"
    ],
    "props": {
      "blockClass":"op-order-section"
    }
  },
  "rich-text#op-order-payment":{
    "props": {
      "text": "Forma de pagamento",
      "blockClass":"op-title-payment"
    }
  },
  "op-section#payments": {
    "props": {
      "name": "paymentMethods"
    },
    "children": [
      "op-order-payment"
    ]
  },

  // total section
  "flex-layout.row#op-order-total":{
    "children": [
      "rich-text#op-order-total",
      "op-order-total"
    ],
    "props": {
      "blockClass":"op-order-section"
    }
  },
  "rich-text#op-order-total":{
    "props": {
      "text": "Resumo do pedido",
      "blockClass":"op-title-total"
    }
  },
  
  // bottom of top section of order header
  "flex-layout.row#op-order-options":{
    "children": [
    //  "rich-text#op-bt-cart",  
      "op-order-options#mobile"
    ],
    "props": {
      "blockClass":"op-order-options"
    }
  },
  // "rich-text#op-bt-cart":{
  //   "props": {
  //     "text": "[Realizar nova compra](/cart)",
  //     "blockClass":"op-bt-cart"
  //   }
  // },
 
  "op-order-options#mobile": {
    "props": {
      "blockClass":"op-bt-goAcoount",
      "fullWidth": true
    }
  }  
}
